^C:\USERS\SICSO\DESKTOP\UNIVERSITY\ONEDRIVE - UNIVERSITY OF LEEDS\UNIVERSITYOFLEEDS\FINAL YEAR PROJECT\PREPROCESSING\UNZIPCOMBINE\UNZIPCOMBINE'\BIN\INTERMEDIATES\$PLATFORM\DEBUG\UNZIPCOMBINE.OBJ
/OUT:"C:\USERS\SICSO\DESKTOP\UNIVERSITY\ONEDRIVE - UNIVERSITY OF LEEDS\UNIVERSITYOFLEEDS\FINAL YEAR PROJECT\PREPROCESSING\UNZIPCOMBINE\UNZIPCOMBINE'\BIN\$PLATFORM\DEBUG\UNZIPCOMBINE.EXE" /INCREMENTAL /ILK:"C:\USERS\SICSO\DESKTOP\UNIVERSITY\ONEDRIVE - UNIVERSITY OF LEEDS\UNIVERSITYOFLEEDS\FINAL YEAR PROJECT\PREPROCESSING\UNZIPCOMBINE\UNZIPCOMBINE'\BIN\INTERMEDIATES\$PLATFORM\DEBUG\UNZIPCOMBINE.ILK" /NOLOGO /LIBPATH:"C:\USERS\SICSO\DESKTOP\UNIVERSITY\ONEDRIVE - UNIVERSITY OF LEEDS\UNIVERSITYOFLEEDS\FINAL YEAR PROJECT\PREPROCESSING\UNZIPCOMBINE\UNZIPCOMBINE'\UNZIPCOMBINE'\DEPENDENCIES\ZLIB\LIB\ZLIB" ZLIB.LIB KERNEL32.LIB USER32.LIB GDI32.LIB WINSPOOL.LIB COMDLG32.LIB ADVAPI32.LIB SHELL32.LIB OLE32.LIB OLEAUT32.LIB UUID.LIB ODBC32.LIB ODBCCP32.LIB /MANIFEST /MANIFESTUAC:"level='asInvoker' uiAccess='false'" /manifest:embed /DEBUG /PDB:"C:\USERS\SICSO\DESKTOP\UNIVERSITY\ONEDRIVE - UNIVERSITY OF LEEDS\UNIVERSITYOFLEEDS\FINAL YEAR PROJECT\PREPROCESSING\UNZIPCOMBINE\UNZIPCOMBINE'\BIN\$PLATFORM\DEBUG\UNZIPCOMBINE.PDB" /SUBSYSTEM:CONSOLE /TLBID:1 /DYNAMICBASE /NXCOMPAT /IMPLIB:"C:\USERS\SICSO\DESKTOP\UNIVERSITY\ONEDRIVE - UNIVERSITY OF LEEDS\UNIVERSITYOFLEEDS\FINAL YEAR PROJECT\PREPROCESSING\UNZIPCOMBINE\UNZIPCOMBINE'\BIN\$PLATFORM\DEBUG\UNZIPCOMBINE.LIB" /MACHINE:X64 "C:\USERS\SICSO\DESKTOP\UNIVERSITY\ONEDRIVE - UNIVERSITY OF LEEDS\UNIVERSITYOFLEEDS\FINAL YEAR PROJECT\PREPROCESSING\UNZIPCOMBINE\UNZIPCOMBINE'\BIN\INTERMEDIATES\$PLATFORM\DEBUG\UNZIPCOMBINE.OBJ"
^C:\USERS\SICSO\DESKTOP\UNIVERSITY\ONEDRIVE - UNIVERSITY OF LEEDS\UNIVERSITYOFLEEDS\FINAL YEAR PROJECT\PREPROCESSING\UNZIPCOMBINE\UNZIPCOMBINE'\BIN\INTERMEDIATES\$PLATFORM\DEBUG\UNZIPCOMBINE.OBJ|C:\USERS\SICSO\DESKTOP\UNIVERSITY\ONEDRIVE - UNIVERSITY OF LEEDS\UNIVERSITYOFLEEDS\FINAL YEAR PROJECT\PREPROCESSING\UNZIPCOMBINE\UNZIPCOMBINE'\BIN\INTERMEDIATES\$PLATFORM\DEBUG\ZLIBSTUFF.OBJ
/OUT:"C:\USERS\SICSO\DESKTOP\UNIVERSITY\ONEDRIVE - UNIVERSITY OF LEEDS\UNIVERSITYOFLEEDS\FINAL YEAR PROJECT\PREPROCESSING\UNZIPCOMBINE\UNZIPCOMBINE'\BIN\$PLATFORM\DEBUG\UNZIPCOMBINE.EXE" /INCREMENTAL /ILK:"C:\USERS\SICSO\DESKTOP\UNIVERSITY\ONEDRIVE - UNIVERSITY OF LEEDS\UNIVERSITYOFLEEDS\FINAL YEAR PROJECT\PREPROCESSING\UNZIPCOMBINE\UNZIPCOMBINE'\BIN\INTERMEDIATES\$PLATFORM\DEBUG\UNZIPCOMBINE.ILK" /NOLOGO /LIBPATH:"C:\USERS\SICSO\DESKTOP\UNIVERSITY\ONEDRIVE - UNIVERSITY OF LEEDS\UNIVERSITYOFLEEDS\FINAL YEAR PROJECT\PREPROCESSING\UNZIPCOMBINE\UNZIPCOMBINE'\UNZIPCOMBINE'\DEPENDENCIES\ZLIB\LIB\ZLIB" ZLIB.LIB KERNEL32.LIB USER32.LIB GDI32.LIB WINSPOOL.LIB COMDLG32.LIB ADVAPI32.LIB SHELL32.LIB OLE32.LIB OLEAUT32.LIB UUID.LIB ODBC32.LIB ODBCCP32.LIB /MANIFEST /MANIFESTUAC:"level='asInvoker' uiAccess='false'" /manifest:embed /DEBUG /PDB:"C:\USERS\SICSO\DESKTOP\UNIVERSITY\ONEDRIVE - UNIVERSITY OF LEEDS\UNIVERSITYOFLEEDS\FINAL YEAR PROJECT\PREPROCESSING\UNZIPCOMBINE\UNZIPCOMBINE'\BIN\$PLATFORM\DEBUG\UNZIPCOMBINE.PDB" /SUBSYSTEM:CONSOLE /TLBID:1 /DYNAMICBASE /NXCOMPAT /IMPLIB:"C:\USERS\SICSO\DESKTOP\UNIVERSITY\ONEDRIVE - UNIVERSITY OF LEEDS\UNIVERSITYOFLEEDS\FINAL YEAR PROJECT\PREPROCESSING\UNZIPCOMBINE\UNZIPCOMBINE'\BIN\$PLATFORM\DEBUG\UNZIPCOMBINE.LIB" /MACHINE:X64 "C:\USERS\SICSO\DESKTOP\UNIVERSITY\ONEDRIVE - UNIVERSITY OF LEEDS\UNIVERSITYOFLEEDS\FINAL YEAR PROJECT\PREPROCESSING\UNZIPCOMBINE\UNZIPCOMBINE'\BIN\INTERMEDIATES\$PLATFORM\DEBUG\UNZIPCOMBINE.OBJ"
"C:\USERS\SICSO\DESKTOP\UNIVERSITY\ONEDRIVE - UNIVERSITY OF LEEDS\UNIVERSITYOFLEEDS\FINAL YEAR PROJECT\PREPROCESSING\UNZIPCOMBINE\UNZIPCOMBINE'\BIN\INTERMEDIATES\$PLATFORM\DEBUG\ZLIBSTUFF.OBJ"
