^C:\USERS\SICSO\DESKTOP\UNIVERSITY\ONEDRIVE - UNIVERSITY OF LEEDS\UNIVERSITYOFLEEDS\FINAL YEAR PROJECT\PREPROCESSING\UNZIPCOMBINE\UNZIPCOMBINE'\UNZIPCOMBINE'\SRC\ZLIBSTUFF.CPP
C:\COMPUTER_SCIENCE\IDE\VISUALSTUDIO2019\IDE\VC\TOOLS\MSVC\14.29.30133\INCLUDE\IOSTREAM
C:\COMPUTER_SCIENCE\IDE\VISUALSTUDIO2019\IDE\VC\TOOLS\MSVC\14.29.30133\INCLUDE\YVALS_CORE.H
C:\COMPUTER_SCIENCE\IDE\VISUALSTUDIO2019\IDE\VC\TOOLS\MSVC\14.29.30133\INCLUDE\VCRUNTIME.H
C:\COMPUTER_SCIENCE\IDE\VISUALSTUDIO2019\IDE\VC\TOOLS\MSVC\14.29.30133\INCLUDE\SAL.H
C:\COMPUTER_SCIENCE\IDE\VISUALSTUDIO2019\IDE\VC\TOOLS\MSVC\14.29.30133\INCLUDE\CONCURRENCYSAL.H
C:\COMPUTER_SCIENCE\IDE\VISUALSTUDIO2019\IDE\VC\TOOLS\MSVC\14.29.30133\INCLUDE\VADEFS.H
C:\COMPUTER_SCIENCE\IDE\VISUALSTUDIO2019\IDE\VC\TOOLS\MSVC\14.29.30133\INCLUDE\XKEYCHECK.H
C:\COMPUTER_SCIENCE\IDE\VISUALSTUDIO2019\IDE\VC\TOOLS\MSVC\14.29.30133\INCLUDE\ISTREAM
C:\COMPUTER_SCIENCE\IDE\VISUALSTUDIO2019\IDE\VC\TOOLS\MSVC\14.29.30133\INCLUDE\OSTREAM
C:\COMPUTER_SCIENCE\IDE\VISUALSTUDIO2019\IDE\VC\TOOLS\MSVC\14.29.30133\INCLUDE\IOS
C:\COMPUTER_SCIENCE\IDE\VISUALSTUDIO2019\IDE\VC\TOOLS\MSVC\14.29.30133\INCLUDE\XLOCNUM
C:\COMPUTER_SCIENCE\IDE\VISUALSTUDIO2019\IDE\VC\TOOLS\MSVC\14.29.30133\INCLUDE\CLIMITS
C:\COMPUTER_SCIENCE\IDE\VISUALSTUDIO2019\IDE\VC\TOOLS\MSVC\14.29.30133\INCLUDE\LIMITS.H
C:\COMPUTER_SCIENCE\IDE\VISUALSTUDIO2019\IDE\VC\TOOLS\MSVC\14.29.30133\INCLUDE\CMATH
C:\COMPUTER_SCIENCE\IDE\VISUALSTUDIO2019\IDE\VC\TOOLS\MSVC\14.29.30133\INCLUDE\YVALS.H
C:\PROGRAM FILES (X86)\WINDOWS KITS\10\INCLUDE\10.0.19041.0\UCRT\CRTDBG.H
C:\PROGRAM FILES (X86)\WINDOWS KITS\10\INCLUDE\10.0.19041.0\UCRT\CORECRT.H
C:\COMPUTER_SCIENCE\IDE\VISUALSTUDIO2019\IDE\VC\TOOLS\MSVC\14.29.30133\INCLUDE\VCRUNTIME_NEW_DEBUG.H
C:\COMPUTER_SCIENCE\IDE\VISUALSTUDIO2019\IDE\VC\TOOLS\MSVC\14.29.30133\INCLUDE\VCRUNTIME_NEW.H
C:\COMPUTER_SCIENCE\IDE\VISUALSTUDIO2019\IDE\VC\TOOLS\MSVC\14.29.30133\INCLUDE\CRTDEFS.H
C:\COMPUTER_SCIENCE\IDE\VISUALSTUDIO2019\IDE\VC\TOOLS\MSVC\14.29.30133\INCLUDE\USE_ANSI.H
C:\COMPUTER_SCIENCE\IDE\VISUALSTUDIO2019\IDE\VC\TOOLS\MSVC\14.29.30133\INCLUDE\CSTDLIB
C:\PROGRAM FILES (X86)\WINDOWS KITS\10\INCLUDE\10.0.19041.0\UCRT\MATH.H
C:\PROGRAM FILES (X86)\WINDOWS KITS\10\INCLUDE\10.0.19041.0\UCRT\CORECRT_MATH.H
C:\PROGRAM FILES (X86)\WINDOWS KITS\10\INCLUDE\10.0.19041.0\UCRT\STDLIB.H
C:\PROGRAM FILES (X86)\WINDOWS KITS\10\INCLUDE\10.0.19041.0\UCRT\CORECRT_MALLOC.H
C:\PROGRAM FILES (X86)\WINDOWS KITS\10\INCLUDE\10.0.19041.0\UCRT\CORECRT_SEARCH.H
C:\PROGRAM FILES (X86)\WINDOWS KITS\10\INCLUDE\10.0.19041.0\UCRT\STDDEF.H
C:\PROGRAM FILES (X86)\WINDOWS KITS\10\INCLUDE\10.0.19041.0\UCRT\CORECRT_WSTDLIB.H
C:\COMPUTER_SCIENCE\IDE\VISUALSTUDIO2019\IDE\VC\TOOLS\MSVC\14.29.30133\INCLUDE\XTR1COMMON
C:\COMPUTER_SCIENCE\IDE\VISUALSTUDIO2019\IDE\VC\TOOLS\MSVC\14.29.30133\INCLUDE\INTRIN0.H
C:\COMPUTER_SCIENCE\IDE\VISUALSTUDIO2019\IDE\VC\TOOLS\MSVC\14.29.30133\INCLUDE\INTRIN0.INL.H
C:\COMPUTER_SCIENCE\IDE\VISUALSTUDIO2019\IDE\VC\TOOLS\MSVC\14.29.30133\INCLUDE\XUTILITY
C:\COMPUTER_SCIENCE\IDE\VISUALSTUDIO2019\IDE\VC\TOOLS\MSVC\14.29.30133\INCLUDE\CSTRING
C:\PROGRAM FILES (X86)\WINDOWS KITS\10\INCLUDE\10.0.19041.0\UCRT\STRING.H
C:\PROGRAM FILES (X86)\WINDOWS KITS\10\INCLUDE\10.0.19041.0\UCRT\CORECRT_MEMORY.H
C:\PROGRAM FILES (X86)\WINDOWS KITS\10\INCLUDE\10.0.19041.0\UCRT\CORECRT_MEMCPY_S.H
C:\PROGRAM FILES (X86)\WINDOWS KITS\10\INCLUDE\10.0.19041.0\UCRT\ERRNO.H
C:\COMPUTER_SCIENCE\IDE\VISUALSTUDIO2019\IDE\VC\TOOLS\MSVC\14.29.30133\INCLUDE\VCRUNTIME_STRING.H
C:\PROGRAM FILES (X86)\WINDOWS KITS\10\INCLUDE\10.0.19041.0\UCRT\CORECRT_WSTRING.H
C:\COMPUTER_SCIENCE\IDE\VISUALSTUDIO2019\IDE\VC\TOOLS\MSVC\14.29.30133\INCLUDE\UTILITY
C:\COMPUTER_SCIENCE\IDE\VISUALSTUDIO2019\IDE\VC\TOOLS\MSVC\14.29.30133\INCLUDE\TYPE_TRAITS
C:\COMPUTER_SCIENCE\IDE\VISUALSTUDIO2019\IDE\VC\TOOLS\MSVC\14.29.30133\INCLUDE\CSTDINT
C:\COMPUTER_SCIENCE\IDE\VISUALSTUDIO2019\IDE\VC\TOOLS\MSVC\14.29.30133\INCLUDE\STDINT.H
C:\COMPUTER_SCIENCE\IDE\VISUALSTUDIO2019\IDE\VC\TOOLS\MSVC\14.29.30133\INCLUDE\XSTDDEF
C:\COMPUTER_SCIENCE\IDE\VISUALSTUDIO2019\IDE\VC\TOOLS\MSVC\14.29.30133\INCLUDE\CSTDDEF
C:\COMPUTER_SCIENCE\IDE\VISUALSTUDIO2019\IDE\VC\TOOLS\MSVC\14.29.30133\INCLUDE\INITIALIZER_LIST
C:\COMPUTER_SCIENCE\IDE\VISUALSTUDIO2019\IDE\VC\TOOLS\MSVC\14.29.30133\INCLUDE\CONCEPTS
C:\COMPUTER_SCIENCE\IDE\VISUALSTUDIO2019\IDE\VC\TOOLS\MSVC\14.29.30133\INCLUDE\COMPARE
C:\COMPUTER_SCIENCE\IDE\VISUALSTUDIO2019\IDE\VC\TOOLS\MSVC\14.29.30133\INCLUDE\BIT
C:\COMPUTER_SCIENCE\IDE\VISUALSTUDIO2019\IDE\VC\TOOLS\MSVC\14.29.30133\INCLUDE\ISA_AVAILABILITY.H
C:\COMPUTER_SCIENCE\IDE\VISUALSTUDIO2019\IDE\VC\TOOLS\MSVC\14.29.30133\INCLUDE\LIMITS
C:\COMPUTER_SCIENCE\IDE\VISUALSTUDIO2019\IDE\VC\TOOLS\MSVC\14.29.30133\INCLUDE\CFLOAT
C:\PROGRAM FILES (X86)\WINDOWS KITS\10\INCLUDE\10.0.19041.0\UCRT\FLOAT.H
C:\COMPUTER_SCIENCE\IDE\VISUALSTUDIO2019\IDE\VC\TOOLS\MSVC\14.29.30133\INCLUDE\CWCHAR
C:\COMPUTER_SCIENCE\IDE\VISUALSTUDIO2019\IDE\VC\TOOLS\MSVC\14.29.30133\INCLUDE\CSTDIO
C:\PROGRAM FILES (X86)\WINDOWS KITS\10\INCLUDE\10.0.19041.0\UCRT\STDIO.H
C:\PROGRAM FILES (X86)\WINDOWS KITS\10\INCLUDE\10.0.19041.0\UCRT\CORECRT_WSTDIO.H
C:\PROGRAM FILES (X86)\WINDOWS KITS\10\INCLUDE\10.0.19041.0\UCRT\CORECRT_STDIO_CONFIG.H
C:\PROGRAM FILES (X86)\WINDOWS KITS\10\INCLUDE\10.0.19041.0\UCRT\WCHAR.H
C:\PROGRAM FILES (X86)\WINDOWS KITS\10\INCLUDE\10.0.19041.0\UCRT\CORECRT_WCONIO.H
C:\PROGRAM FILES (X86)\WINDOWS KITS\10\INCLUDE\10.0.19041.0\UCRT\CORECRT_WCTYPE.H
C:\PROGRAM FILES (X86)\WINDOWS KITS\10\INCLUDE\10.0.19041.0\UCRT\CORECRT_WDIRECT.H
C:\PROGRAM FILES (X86)\WINDOWS KITS\10\INCLUDE\10.0.19041.0\UCRT\CORECRT_WIO.H
C:\PROGRAM FILES (X86)\WINDOWS KITS\10\INCLUDE\10.0.19041.0\UCRT\CORECRT_SHARE.H
C:\PROGRAM FILES (X86)\WINDOWS KITS\10\INCLUDE\10.0.19041.0\UCRT\CORECRT_WPROCESS.H
C:\PROGRAM FILES (X86)\WINDOWS KITS\10\INCLUDE\10.0.19041.0\UCRT\CORECRT_WTIME.H
C:\PROGRAM FILES (X86)\WINDOWS KITS\10\INCLUDE\10.0.19041.0\UCRT\SYS\STAT.H
C:\PROGRAM FILES (X86)\WINDOWS KITS\10\INCLUDE\10.0.19041.0\UCRT\SYS\TYPES.H
C:\COMPUTER_SCIENCE\IDE\VISUALSTUDIO2019\IDE\VC\TOOLS\MSVC\14.29.30133\INCLUDE\ITERATOR
C:\COMPUTER_SCIENCE\IDE\VISUALSTUDIO2019\IDE\VC\TOOLS\MSVC\14.29.30133\INCLUDE\IOSFWD
C:\COMPUTER_SCIENCE\IDE\VISUALSTUDIO2019\IDE\VC\TOOLS\MSVC\14.29.30133\INCLUDE\STREAMBUF
C:\COMPUTER_SCIENCE\IDE\VISUALSTUDIO2019\IDE\VC\TOOLS\MSVC\14.29.30133\INCLUDE\XIOSBASE
C:\PROGRAM FILES (X86)\WINDOWS KITS\10\INCLUDE\10.0.19041.0\UCRT\SHARE.H
C:\COMPUTER_SCIENCE\IDE\VISUALSTUDIO2019\IDE\VC\TOOLS\MSVC\14.29.30133\INCLUDE\SYSTEM_ERROR
C:\COMPUTER_SCIENCE\IDE\VISUALSTUDIO2019\IDE\VC\TOOLS\MSVC\14.29.30133\INCLUDE\__MSVC_SYSTEM_ERROR_ABI.HPP
C:\COMPUTER_SCIENCE\IDE\VISUALSTUDIO2019\IDE\VC\TOOLS\MSVC\14.29.30133\INCLUDE\CERRNO
C:\COMPUTER_SCIENCE\IDE\VISUALSTUDIO2019\IDE\VC\TOOLS\MSVC\14.29.30133\INCLUDE\STDEXCEPT
C:\COMPUTER_SCIENCE\IDE\VISUALSTUDIO2019\IDE\VC\TOOLS\MSVC\14.29.30133\INCLUDE\EXCEPTION
C:\PROGRAM FILES (X86)\WINDOWS KITS\10\INCLUDE\10.0.19041.0\UCRT\MALLOC.H
C:\COMPUTER_SCIENCE\IDE\VISUALSTUDIO2019\IDE\VC\TOOLS\MSVC\14.29.30133\INCLUDE\VCRUNTIME_EXCEPTION.H
C:\COMPUTER_SCIENCE\IDE\VISUALSTUDIO2019\IDE\VC\TOOLS\MSVC\14.29.30133\INCLUDE\EH.H
C:\PROGRAM FILES (X86)\WINDOWS KITS\10\INCLUDE\10.0.19041.0\UCRT\CORECRT_TERMINATE.H
C:\COMPUTER_SCIENCE\IDE\VISUALSTUDIO2019\IDE\VC\TOOLS\MSVC\14.29.30133\INCLUDE\XSTRING
C:\COMPUTER_SCIENCE\IDE\VISUALSTUDIO2019\IDE\VC\TOOLS\MSVC\14.29.30133\INCLUDE\XMEMORY
C:\COMPUTER_SCIENCE\IDE\VISUALSTUDIO2019\IDE\VC\TOOLS\MSVC\14.29.30133\INCLUDE\NEW
C:\COMPUTER_SCIENCE\IDE\VISUALSTUDIO2019\IDE\VC\TOOLS\MSVC\14.29.30133\INCLUDE\XATOMIC.H
C:\COMPUTER_SCIENCE\IDE\VISUALSTUDIO2019\IDE\VC\TOOLS\MSVC\14.29.30133\INCLUDE\TUPLE
C:\COMPUTER_SCIENCE\IDE\VISUALSTUDIO2019\IDE\VC\TOOLS\MSVC\14.29.30133\INCLUDE\XPOLYMORPHIC_ALLOCATOR.H
C:\COMPUTER_SCIENCE\IDE\VISUALSTUDIO2019\IDE\VC\TOOLS\MSVC\14.29.30133\INCLUDE\XCALL_ONCE.H
C:\COMPUTER_SCIENCE\IDE\VISUALSTUDIO2019\IDE\VC\TOOLS\MSVC\14.29.30133\INCLUDE\XERRC.H
C:\COMPUTER_SCIENCE\IDE\VISUALSTUDIO2019\IDE\VC\TOOLS\MSVC\14.29.30133\INCLUDE\ATOMIC
C:\COMPUTER_SCIENCE\IDE\VISUALSTUDIO2019\IDE\VC\TOOLS\MSVC\14.29.30133\INCLUDE\XATOMIC_WAIT.H
C:\COMPUTER_SCIENCE\IDE\VISUALSTUDIO2019\IDE\VC\TOOLS\MSVC\14.29.30133\INCLUDE\XTHREADS.H
C:\COMPUTER_SCIENCE\IDE\VISUALSTUDIO2019\IDE\VC\TOOLS\MSVC\14.29.30133\INCLUDE\XTIMEC.H
C:\COMPUTER_SCIENCE\IDE\VISUALSTUDIO2019\IDE\VC\TOOLS\MSVC\14.29.30133\INCLUDE\CTIME
C:\PROGRAM FILES (X86)\WINDOWS KITS\10\INCLUDE\10.0.19041.0\UCRT\TIME.H
C:\COMPUTER_SCIENCE\IDE\VISUALSTUDIO2019\IDE\VC\TOOLS\MSVC\14.29.30133\INCLUDE\XLOCALE
C:\COMPUTER_SCIENCE\IDE\VISUALSTUDIO2019\IDE\VC\TOOLS\MSVC\14.29.30133\INCLUDE\MEMORY
C:\COMPUTER_SCIENCE\IDE\VISUALSTUDIO2019\IDE\VC\TOOLS\MSVC\14.29.30133\INCLUDE\TYPEINFO
C:\COMPUTER_SCIENCE\IDE\VISUALSTUDIO2019\IDE\VC\TOOLS\MSVC\14.29.30133\INCLUDE\VCRUNTIME_TYPEINFO.H
C:\COMPUTER_SCIENCE\IDE\VISUALSTUDIO2019\IDE\VC\TOOLS\MSVC\14.29.30133\INCLUDE\XFACET
C:\COMPUTER_SCIENCE\IDE\VISUALSTUDIO2019\IDE\VC\TOOLS\MSVC\14.29.30133\INCLUDE\XLOCINFO
C:\COMPUTER_SCIENCE\IDE\VISUALSTUDIO2019\IDE\VC\TOOLS\MSVC\14.29.30133\INCLUDE\XLOCINFO.H
C:\COMPUTER_SCIENCE\IDE\VISUALSTUDIO2019\IDE\VC\TOOLS\MSVC\14.29.30133\INCLUDE\CCTYPE
C:\PROGRAM FILES (X86)\WINDOWS KITS\10\INCLUDE\10.0.19041.0\UCRT\CTYPE.H
C:\COMPUTER_SCIENCE\IDE\VISUALSTUDIO2019\IDE\VC\TOOLS\MSVC\14.29.30133\INCLUDE\CLOCALE
C:\PROGRAM FILES (X86)\WINDOWS KITS\10\INCLUDE\10.0.19041.0\UCRT\LOCALE.H
C:\PROGRAM FILES (X86)\WINDOWS KITS\10\INCLUDE\10.0.19041.0\UCRT\ASSERT.H
C:\COMPUTER_SCIENCE\IDE\VISUALSTUDIO2019\IDE\VC\TOOLS\MSVC\14.29.30133\INCLUDE\VECTOR
C:\USERS\SICSO\DESKTOP\UNIVERSITY\ONEDRIVE - UNIVERSITY OF LEEDS\UNIVERSITYOFLEEDS\FINAL YEAR PROJECT\PREPROCESSING\UNZIPCOMBINE\UNZIPCOMBINE'\UNZIPCOMBINE'\DEPENDENCIES\ZLIB\INCLUDE\ZLIB\ZLIB.H
C:\USERS\SICSO\DESKTOP\UNIVERSITY\ONEDRIVE - UNIVERSITY OF LEEDS\UNIVERSITYOFLEEDS\FINAL YEAR PROJECT\PREPROCESSING\UNZIPCOMBINE\UNZIPCOMBINE'\UNZIPCOMBINE'\DEPENDENCIES\ZLIB\INCLUDE\ZLIB\ZCONF.H
C:\COMPUTER_SCIENCE\IDE\VISUALSTUDIO2019\IDE\VC\TOOLS\MSVC\14.29.30133\INCLUDE\STDARG.H
C:\COMPUTER_SCIENCE\IDE\VISUALSTUDIO2019\IDE\VC\TOOLS\MSVC\14.29.30133\INCLUDE\FILESYSTEM
C:\COMPUTER_SCIENCE\IDE\VISUALSTUDIO2019\IDE\VC\TOOLS\MSVC\14.29.30133\INCLUDE\ALGORITHM
C:\COMPUTER_SCIENCE\IDE\VISUALSTUDIO2019\IDE\VC\TOOLS\MSVC\14.29.30133\INCLUDE\CHRONO
C:\COMPUTER_SCIENCE\IDE\VISUALSTUDIO2019\IDE\VC\TOOLS\MSVC\14.29.30133\INCLUDE\RATIO
C:\COMPUTER_SCIENCE\IDE\VISUALSTUDIO2019\IDE\VC\TOOLS\MSVC\14.29.30133\INCLUDE\__MSVC_TZDB.HPP
C:\COMPUTER_SCIENCE\IDE\VISUALSTUDIO2019\IDE\VC\TOOLS\MSVC\14.29.30133\INCLUDE\FORWARD_LIST
C:\COMPUTER_SCIENCE\IDE\VISUALSTUDIO2019\IDE\VC\TOOLS\MSVC\14.29.30133\INCLUDE\OPTIONAL
C:\COMPUTER_SCIENCE\IDE\VISUALSTUDIO2019\IDE\VC\TOOLS\MSVC\14.29.30133\INCLUDE\XSMF_CONTROL.H
C:\COMPUTER_SCIENCE\IDE\VISUALSTUDIO2019\IDE\VC\TOOLS\MSVC\14.29.30133\INCLUDE\SSTREAM
C:\COMPUTER_SCIENCE\IDE\VISUALSTUDIO2019\IDE\VC\TOOLS\MSVC\14.29.30133\INCLUDE\STRING
C:\COMPUTER_SCIENCE\IDE\VISUALSTUDIO2019\IDE\VC\TOOLS\MSVC\14.29.30133\INCLUDE\XLOCTIME
C:\COMPUTER_SCIENCE\IDE\VISUALSTUDIO2019\IDE\VC\TOOLS\MSVC\14.29.30133\INCLUDE\IOMANIP
C:\COMPUTER_SCIENCE\IDE\VISUALSTUDIO2019\IDE\VC\TOOLS\MSVC\14.29.30133\INCLUDE\XLOCMON
C:\COMPUTER_SCIENCE\IDE\VISUALSTUDIO2019\IDE\VC\TOOLS\MSVC\14.29.30133\INCLUDE\LIST
C:\COMPUTER_SCIENCE\IDE\VISUALSTUDIO2019\IDE\VC\TOOLS\MSVC\14.29.30133\INCLUDE\LOCALE
C:\COMPUTER_SCIENCE\IDE\VISUALSTUDIO2019\IDE\VC\TOOLS\MSVC\14.29.30133\INCLUDE\XLOCBUF
C:\COMPUTER_SCIENCE\IDE\VISUALSTUDIO2019\IDE\VC\TOOLS\MSVC\14.29.30133\INCLUDE\XLOCMES
C:\COMPUTER_SCIENCE\IDE\VISUALSTUDIO2019\IDE\VC\TOOLS\MSVC\14.29.30133\INCLUDE\STRING_VIEW
C:\COMPUTER_SCIENCE\IDE\VISUALSTUDIO2019\IDE\VC\TOOLS\MSVC\14.29.30133\INCLUDE\XFILESYSTEM_ABI.H
C:\PROGRAM FILES (X86)\WINDOWS KITS\10\INCLUDE\10.0.19041.0\UCRT\FCNTL.H
C:\PROGRAM FILES (X86)\WINDOWS KITS\10\INCLUDE\10.0.19041.0\UCRT\IO.H
C:\PROGRAM FILES (X86)\WINDOWS KITS\10\INCLUDE\10.0.19041.0\UCRT\CORECRT_IO.H
^C:\USERS\SICSO\DESKTOP\UNIVERSITY\ONEDRIVE - UNIVERSITY OF LEEDS\UNIVERSITYOFLEEDS\FINAL YEAR PROJECT\PREPROCESSING\UNZIPCOMBINE\UNZIPCOMBINE'\UNZIPCOMBINE'\SRC\UNZIPCOMBINE.CPP
C:\WINDOWS\GLOBALIZATION\SORTING\SORTDEFAULT.NLS
C:\COMPUTER_SCIENCE\IDE\VISUALSTUDIO2019\IDE\VC\TOOLS\MSVC\14.29.30133\BIN\HOSTX86\X64\1033\CLUI.DLL
C:\WINDOWS\SYSTEM32\TZRES.DLL
C:\COMPUTER_SCIENCE\IDE\VISUALSTUDIO2019\IDE\VC\TOOLS\MSVC\14.29.30133\INCLUDE\IOSTREAM
C:\COMPUTER_SCIENCE\IDE\VISUALSTUDIO2019\IDE\VC\TOOLS\MSVC\14.29.30133\INCLUDE\YVALS_CORE.H
C:\COMPUTER_SCIENCE\IDE\VISUALSTUDIO2019\IDE\VC\TOOLS\MSVC\14.29.30133\INCLUDE\VCRUNTIME.H
C:\COMPUTER_SCIENCE\IDE\VISUALSTUDIO2019\IDE\VC\TOOLS\MSVC\14.29.30133\INCLUDE\SAL.H
C:\COMPUTER_SCIENCE\IDE\VISUALSTUDIO2019\IDE\VC\TOOLS\MSVC\14.29.30133\INCLUDE\CONCURRENCYSAL.H
C:\COMPUTER_SCIENCE\IDE\VISUALSTUDIO2019\IDE\VC\TOOLS\MSVC\14.29.30133\INCLUDE\VADEFS.H
C:\COMPUTER_SCIENCE\IDE\VISUALSTUDIO2019\IDE\VC\TOOLS\MSVC\14.29.30133\INCLUDE\XKEYCHECK.H
C:\COMPUTER_SCIENCE\IDE\VISUALSTUDIO2019\IDE\VC\TOOLS\MSVC\14.29.30133\INCLUDE\ISTREAM
C:\COMPUTER_SCIENCE\IDE\VISUALSTUDIO2019\IDE\VC\TOOLS\MSVC\14.29.30133\INCLUDE\OSTREAM
C:\COMPUTER_SCIENCE\IDE\VISUALSTUDIO2019\IDE\VC\TOOLS\MSVC\14.29.30133\INCLUDE\IOS
C:\COMPUTER_SCIENCE\IDE\VISUALSTUDIO2019\IDE\VC\TOOLS\MSVC\14.29.30133\INCLUDE\XLOCNUM
C:\COMPUTER_SCIENCE\IDE\VISUALSTUDIO2019\IDE\VC\TOOLS\MSVC\14.29.30133\INCLUDE\CLIMITS
C:\COMPUTER_SCIENCE\IDE\VISUALSTUDIO2019\IDE\VC\TOOLS\MSVC\14.29.30133\INCLUDE\LIMITS.H
C:\COMPUTER_SCIENCE\IDE\VISUALSTUDIO2019\IDE\VC\TOOLS\MSVC\14.29.30133\INCLUDE\CMATH
C:\COMPUTER_SCIENCE\IDE\VISUALSTUDIO2019\IDE\VC\TOOLS\MSVC\14.29.30133\INCLUDE\YVALS.H
C:\PROGRAM FILES (X86)\WINDOWS KITS\10\INCLUDE\10.0.19041.0\UCRT\CRTDBG.H
C:\PROGRAM FILES (X86)\WINDOWS KITS\10\INCLUDE\10.0.19041.0\UCRT\CORECRT.H
C:\COMPUTER_SCIENCE\IDE\VISUALSTUDIO2019\IDE\VC\TOOLS\MSVC\14.29.30133\INCLUDE\VCRUNTIME_NEW_DEBUG.H
C:\COMPUTER_SCIENCE\IDE\VISUALSTUDIO2019\IDE\VC\TOOLS\MSVC\14.29.30133\INCLUDE\VCRUNTIME_NEW.H
C:\COMPUTER_SCIENCE\IDE\VISUALSTUDIO2019\IDE\VC\TOOLS\MSVC\14.29.30133\INCLUDE\CRTDEFS.H
C:\COMPUTER_SCIENCE\IDE\VISUALSTUDIO2019\IDE\VC\TOOLS\MSVC\14.29.30133\INCLUDE\USE_ANSI.H
C:\COMPUTER_SCIENCE\IDE\VISUALSTUDIO2019\IDE\VC\TOOLS\MSVC\14.29.30133\INCLUDE\CSTDLIB
C:\PROGRAM FILES (X86)\WINDOWS KITS\10\INCLUDE\10.0.19041.0\UCRT\MATH.H
C:\PROGRAM FILES (X86)\WINDOWS KITS\10\INCLUDE\10.0.19041.0\UCRT\CORECRT_MATH.H
C:\PROGRAM FILES (X86)\WINDOWS KITS\10\INCLUDE\10.0.19041.0\UCRT\STDLIB.H
C:\PROGRAM FILES (X86)\WINDOWS KITS\10\INCLUDE\10.0.19041.0\UCRT\CORECRT_MALLOC.H
C:\PROGRAM FILES (X86)\WINDOWS KITS\10\INCLUDE\10.0.19041.0\UCRT\CORECRT_SEARCH.H
C:\PROGRAM FILES (X86)\WINDOWS KITS\10\INCLUDE\10.0.19041.0\UCRT\STDDEF.H
C:\PROGRAM FILES (X86)\WINDOWS KITS\10\INCLUDE\10.0.19041.0\UCRT\CORECRT_WSTDLIB.H
C:\COMPUTER_SCIENCE\IDE\VISUALSTUDIO2019\IDE\VC\TOOLS\MSVC\14.29.30133\INCLUDE\XTR1COMMON
C:\COMPUTER_SCIENCE\IDE\VISUALSTUDIO2019\IDE\VC\TOOLS\MSVC\14.29.30133\INCLUDE\INTRIN0.H
C:\COMPUTER_SCIENCE\IDE\VISUALSTUDIO2019\IDE\VC\TOOLS\MSVC\14.29.30133\INCLUDE\INTRIN0.INL.H
C:\COMPUTER_SCIENCE\IDE\VISUALSTUDIO2019\IDE\VC\TOOLS\MSVC\14.29.30133\INCLUDE\XUTILITY
C:\COMPUTER_SCIENCE\IDE\VISUALSTUDIO2019\IDE\VC\TOOLS\MSVC\14.29.30133\INCLUDE\CSTRING
C:\PROGRAM FILES (X86)\WINDOWS KITS\10\INCLUDE\10.0.19041.0\UCRT\STRING.H
C:\PROGRAM FILES (X86)\WINDOWS KITS\10\INCLUDE\10.0.19041.0\UCRT\CORECRT_MEMORY.H
C:\PROGRAM FILES (X86)\WINDOWS KITS\10\INCLUDE\10.0.19041.0\UCRT\CORECRT_MEMCPY_S.H
C:\PROGRAM FILES (X86)\WINDOWS KITS\10\INCLUDE\10.0.19041.0\UCRT\ERRNO.H
C:\COMPUTER_SCIENCE\IDE\VISUALSTUDIO2019\IDE\VC\TOOLS\MSVC\14.29.30133\INCLUDE\VCRUNTIME_STRING.H
C:\PROGRAM FILES (X86)\WINDOWS KITS\10\INCLUDE\10.0.19041.0\UCRT\CORECRT_WSTRING.H
C:\COMPUTER_SCIENCE\IDE\VISUALSTUDIO2019\IDE\VC\TOOLS\MSVC\14.29.30133\INCLUDE\UTILITY
C:\COMPUTER_SCIENCE\IDE\VISUALSTUDIO2019\IDE\VC\TOOLS\MSVC\14.29.30133\INCLUDE\TYPE_TRAITS
C:\COMPUTER_SCIENCE\IDE\VISUALSTUDIO2019\IDE\VC\TOOLS\MSVC\14.29.30133\INCLUDE\CSTDINT
C:\COMPUTER_SCIENCE\IDE\VISUALSTUDIO2019\IDE\VC\TOOLS\MSVC\14.29.30133\INCLUDE\STDINT.H
C:\COMPUTER_SCIENCE\IDE\VISUALSTUDIO2019\IDE\VC\TOOLS\MSVC\14.29.30133\INCLUDE\XSTDDEF
C:\COMPUTER_SCIENCE\IDE\VISUALSTUDIO2019\IDE\VC\TOOLS\MSVC\14.29.30133\INCLUDE\CSTDDEF
C:\COMPUTER_SCIENCE\IDE\VISUALSTUDIO2019\IDE\VC\TOOLS\MSVC\14.29.30133\INCLUDE\INITIALIZER_LIST
C:\COMPUTER_SCIENCE\IDE\VISUALSTUDIO2019\IDE\VC\TOOLS\MSVC\14.29.30133\INCLUDE\CONCEPTS
C:\COMPUTER_SCIENCE\IDE\VISUALSTUDIO2019\IDE\VC\TOOLS\MSVC\14.29.30133\INCLUDE\COMPARE
C:\COMPUTER_SCIENCE\IDE\VISUALSTUDIO2019\IDE\VC\TOOLS\MSVC\14.29.30133\INCLUDE\BIT
C:\COMPUTER_SCIENCE\IDE\VISUALSTUDIO2019\IDE\VC\TOOLS\MSVC\14.29.30133\INCLUDE\ISA_AVAILABILITY.H
C:\COMPUTER_SCIENCE\IDE\VISUALSTUDIO2019\IDE\VC\TOOLS\MSVC\14.29.30133\INCLUDE\LIMITS
C:\COMPUTER_SCIENCE\IDE\VISUALSTUDIO2019\IDE\VC\TOOLS\MSVC\14.29.30133\INCLUDE\CFLOAT
C:\PROGRAM FILES (X86)\WINDOWS KITS\10\INCLUDE\10.0.19041.0\UCRT\FLOAT.H
C:\COMPUTER_SCIENCE\IDE\VISUALSTUDIO2019\IDE\VC\TOOLS\MSVC\14.29.30133\INCLUDE\CWCHAR
C:\COMPUTER_SCIENCE\IDE\VISUALSTUDIO2019\IDE\VC\TOOLS\MSVC\14.29.30133\INCLUDE\CSTDIO
C:\PROGRAM FILES (X86)\WINDOWS KITS\10\INCLUDE\10.0.19041.0\UCRT\STDIO.H
C:\PROGRAM FILES (X86)\WINDOWS KITS\10\INCLUDE\10.0.19041.0\UCRT\CORECRT_WSTDIO.H
C:\PROGRAM FILES (X86)\WINDOWS KITS\10\INCLUDE\10.0.19041.0\UCRT\CORECRT_STDIO_CONFIG.H
C:\PROGRAM FILES (X86)\WINDOWS KITS\10\INCLUDE\10.0.19041.0\UCRT\WCHAR.H
C:\PROGRAM FILES (X86)\WINDOWS KITS\10\INCLUDE\10.0.19041.0\UCRT\CORECRT_WCONIO.H
C:\PROGRAM FILES (X86)\WINDOWS KITS\10\INCLUDE\10.0.19041.0\UCRT\CORECRT_WCTYPE.H
C:\PROGRAM FILES (X86)\WINDOWS KITS\10\INCLUDE\10.0.19041.0\UCRT\CORECRT_WDIRECT.H
C:\PROGRAM FILES (X86)\WINDOWS KITS\10\INCLUDE\10.0.19041.0\UCRT\CORECRT_WIO.H
C:\PROGRAM FILES (X86)\WINDOWS KITS\10\INCLUDE\10.0.19041.0\UCRT\CORECRT_SHARE.H
C:\PROGRAM FILES (X86)\WINDOWS KITS\10\INCLUDE\10.0.19041.0\UCRT\CORECRT_WPROCESS.H
C:\PROGRAM FILES (X86)\WINDOWS KITS\10\INCLUDE\10.0.19041.0\UCRT\CORECRT_WTIME.H
C:\PROGRAM FILES (X86)\WINDOWS KITS\10\INCLUDE\10.0.19041.0\UCRT\SYS\STAT.H
C:\PROGRAM FILES (X86)\WINDOWS KITS\10\INCLUDE\10.0.19041.0\UCRT\SYS\TYPES.H
C:\COMPUTER_SCIENCE\IDE\VISUALSTUDIO2019\IDE\VC\TOOLS\MSVC\14.29.30133\INCLUDE\ITERATOR
C:\COMPUTER_SCIENCE\IDE\VISUALSTUDIO2019\IDE\VC\TOOLS\MSVC\14.29.30133\INCLUDE\IOSFWD
C:\COMPUTER_SCIENCE\IDE\VISUALSTUDIO2019\IDE\VC\TOOLS\MSVC\14.29.30133\INCLUDE\STREAMBUF
C:\COMPUTER_SCIENCE\IDE\VISUALSTUDIO2019\IDE\VC\TOOLS\MSVC\14.29.30133\INCLUDE\XIOSBASE
C:\PROGRAM FILES (X86)\WINDOWS KITS\10\INCLUDE\10.0.19041.0\UCRT\SHARE.H
C:\COMPUTER_SCIENCE\IDE\VISUALSTUDIO2019\IDE\VC\TOOLS\MSVC\14.29.30133\INCLUDE\SYSTEM_ERROR
C:\COMPUTER_SCIENCE\IDE\VISUALSTUDIO2019\IDE\VC\TOOLS\MSVC\14.29.30133\INCLUDE\__MSVC_SYSTEM_ERROR_ABI.HPP
C:\COMPUTER_SCIENCE\IDE\VISUALSTUDIO2019\IDE\VC\TOOLS\MSVC\14.29.30133\INCLUDE\CERRNO
C:\COMPUTER_SCIENCE\IDE\VISUALSTUDIO2019\IDE\VC\TOOLS\MSVC\14.29.30133\INCLUDE\STDEXCEPT
C:\COMPUTER_SCIENCE\IDE\VISUALSTUDIO2019\IDE\VC\TOOLS\MSVC\14.29.30133\INCLUDE\EXCEPTION
C:\PROGRAM FILES (X86)\WINDOWS KITS\10\INCLUDE\10.0.19041.0\UCRT\MALLOC.H
C:\COMPUTER_SCIENCE\IDE\VISUALSTUDIO2019\IDE\VC\TOOLS\MSVC\14.29.30133\INCLUDE\VCRUNTIME_EXCEPTION.H
C:\COMPUTER_SCIENCE\IDE\VISUALSTUDIO2019\IDE\VC\TOOLS\MSVC\14.29.30133\INCLUDE\EH.H
C:\PROGRAM FILES (X86)\WINDOWS KITS\10\INCLUDE\10.0.19041.0\UCRT\CORECRT_TERMINATE.H
C:\COMPUTER_SCIENCE\IDE\VISUALSTUDIO2019\IDE\VC\TOOLS\MSVC\14.29.30133\INCLUDE\XSTRING
C:\COMPUTER_SCIENCE\IDE\VISUALSTUDIO2019\IDE\VC\TOOLS\MSVC\14.29.30133\INCLUDE\XMEMORY
C:\COMPUTER_SCIENCE\IDE\VISUALSTUDIO2019\IDE\VC\TOOLS\MSVC\14.29.30133\INCLUDE\NEW
C:\COMPUTER_SCIENCE\IDE\VISUALSTUDIO2019\IDE\VC\TOOLS\MSVC\14.29.30133\INCLUDE\XATOMIC.H
C:\COMPUTER_SCIENCE\IDE\VISUALSTUDIO2019\IDE\VC\TOOLS\MSVC\14.29.30133\INCLUDE\TUPLE
C:\COMPUTER_SCIENCE\IDE\VISUALSTUDIO2019\IDE\VC\TOOLS\MSVC\14.29.30133\INCLUDE\XPOLYMORPHIC_ALLOCATOR.H
C:\COMPUTER_SCIENCE\IDE\VISUALSTUDIO2019\IDE\VC\TOOLS\MSVC\14.29.30133\INCLUDE\XCALL_ONCE.H
C:\COMPUTER_SCIENCE\IDE\VISUALSTUDIO2019\IDE\VC\TOOLS\MSVC\14.29.30133\INCLUDE\XERRC.H
C:\COMPUTER_SCIENCE\IDE\VISUALSTUDIO2019\IDE\VC\TOOLS\MSVC\14.29.30133\INCLUDE\ATOMIC
C:\COMPUTER_SCIENCE\IDE\VISUALSTUDIO2019\IDE\VC\TOOLS\MSVC\14.29.30133\INCLUDE\XATOMIC_WAIT.H
C:\COMPUTER_SCIENCE\IDE\VISUALSTUDIO2019\IDE\VC\TOOLS\MSVC\14.29.30133\INCLUDE\XTHREADS.H
C:\COMPUTER_SCIENCE\IDE\VISUALSTUDIO2019\IDE\VC\TOOLS\MSVC\14.29.30133\INCLUDE\XTIMEC.H
C:\COMPUTER_SCIENCE\IDE\VISUALSTUDIO2019\IDE\VC\TOOLS\MSVC\14.29.30133\INCLUDE\CTIME
C:\PROGRAM FILES (X86)\WINDOWS KITS\10\INCLUDE\10.0.19041.0\UCRT\TIME.H
C:\COMPUTER_SCIENCE\IDE\VISUALSTUDIO2019\IDE\VC\TOOLS\MSVC\14.29.30133\INCLUDE\XLOCALE
C:\COMPUTER_SCIENCE\IDE\VISUALSTUDIO2019\IDE\VC\TOOLS\MSVC\14.29.30133\INCLUDE\MEMORY
C:\COMPUTER_SCIENCE\IDE\VISUALSTUDIO2019\IDE\VC\TOOLS\MSVC\14.29.30133\INCLUDE\TYPEINFO
C:\COMPUTER_SCIENCE\IDE\VISUALSTUDIO2019\IDE\VC\TOOLS\MSVC\14.29.30133\INCLUDE\VCRUNTIME_TYPEINFO.H
C:\COMPUTER_SCIENCE\IDE\VISUALSTUDIO2019\IDE\VC\TOOLS\MSVC\14.29.30133\INCLUDE\XFACET
C:\COMPUTER_SCIENCE\IDE\VISUALSTUDIO2019\IDE\VC\TOOLS\MSVC\14.29.30133\INCLUDE\XLOCINFO
C:\COMPUTER_SCIENCE\IDE\VISUALSTUDIO2019\IDE\VC\TOOLS\MSVC\14.29.30133\INCLUDE\XLOCINFO.H
C:\COMPUTER_SCIENCE\IDE\VISUALSTUDIO2019\IDE\VC\TOOLS\MSVC\14.29.30133\INCLUDE\CCTYPE
C:\PROGRAM FILES (X86)\WINDOWS KITS\10\INCLUDE\10.0.19041.0\UCRT\CTYPE.H
C:\COMPUTER_SCIENCE\IDE\VISUALSTUDIO2019\IDE\VC\TOOLS\MSVC\14.29.30133\INCLUDE\CLOCALE
C:\PROGRAM FILES (X86)\WINDOWS KITS\10\INCLUDE\10.0.19041.0\UCRT\LOCALE.H
C:\PROGRAM FILES (X86)\WINDOWS KITS\10\INCLUDE\10.0.19041.0\UCRT\ASSERT.H
C:\COMPUTER_SCIENCE\IDE\VISUALSTUDIO2019\IDE\VC\TOOLS\MSVC\14.29.30133\INCLUDE\VECTOR
C:\USERS\SICSO\DESKTOP\UNIVERSITY\ONEDRIVE - UNIVERSITY OF LEEDS\UNIVERSITYOFLEEDS\FINAL YEAR PROJECT\PREPROCESSING\UNZIPCOMBINE\UNZIPCOMBINE'\UNZIPCOMBINE'\DEPENDENCIES\ZLIB\INCLUDE\ZLIB\ZLIB.H
C:\USERS\SICSO\DESKTOP\UNIVERSITY\ONEDRIVE - UNIVERSITY OF LEEDS\UNIVERSITYOFLEEDS\FINAL YEAR PROJECT\PREPROCESSING\UNZIPCOMBINE\UNZIPCOMBINE'\UNZIPCOMBINE'\DEPENDENCIES\ZLIB\INCLUDE\ZLIB\ZCONF.H
C:\COMPUTER_SCIENCE\IDE\VISUALSTUDIO2019\IDE\VC\TOOLS\MSVC\14.29.30133\INCLUDE\STDARG.H
C:\COMPUTER_SCIENCE\IDE\VISUALSTUDIO2019\IDE\VC\TOOLS\MSVC\14.29.30133\INCLUDE\FILESYSTEM
C:\COMPUTER_SCIENCE\IDE\VISUALSTUDIO2019\IDE\VC\TOOLS\MSVC\14.29.30133\INCLUDE\ALGORITHM
C:\COMPUTER_SCIENCE\IDE\VISUALSTUDIO2019\IDE\VC\TOOLS\MSVC\14.29.30133\INCLUDE\CHRONO
C:\COMPUTER_SCIENCE\IDE\VISUALSTUDIO2019\IDE\VC\TOOLS\MSVC\14.29.30133\INCLUDE\RATIO
C:\COMPUTER_SCIENCE\IDE\VISUALSTUDIO2019\IDE\VC\TOOLS\MSVC\14.29.30133\INCLUDE\__MSVC_TZDB.HPP
C:\COMPUTER_SCIENCE\IDE\VISUALSTUDIO2019\IDE\VC\TOOLS\MSVC\14.29.30133\INCLUDE\FORWARD_LIST
C:\COMPUTER_SCIENCE\IDE\VISUALSTUDIO2019\IDE\VC\TOOLS\MSVC\14.29.30133\INCLUDE\OPTIONAL
C:\COMPUTER_SCIENCE\IDE\VISUALSTUDIO2019\IDE\VC\TOOLS\MSVC\14.29.30133\INCLUDE\XSMF_CONTROL.H
C:\COMPUTER_SCIENCE\IDE\VISUALSTUDIO2019\IDE\VC\TOOLS\MSVC\14.29.30133\INCLUDE\SSTREAM
C:\COMPUTER_SCIENCE\IDE\VISUALSTUDIO2019\IDE\VC\TOOLS\MSVC\14.29.30133\INCLUDE\STRING
C:\COMPUTER_SCIENCE\IDE\VISUALSTUDIO2019\IDE\VC\TOOLS\MSVC\14.29.30133\INCLUDE\XLOCTIME
C:\COMPUTER_SCIENCE\IDE\VISUALSTUDIO2019\IDE\VC\TOOLS\MSVC\14.29.30133\INCLUDE\IOMANIP
C:\COMPUTER_SCIENCE\IDE\VISUALSTUDIO2019\IDE\VC\TOOLS\MSVC\14.29.30133\INCLUDE\XLOCMON
C:\COMPUTER_SCIENCE\IDE\VISUALSTUDIO2019\IDE\VC\TOOLS\MSVC\14.29.30133\INCLUDE\LIST
C:\COMPUTER_SCIENCE\IDE\VISUALSTUDIO2019\IDE\VC\TOOLS\MSVC\14.29.30133\INCLUDE\LOCALE
C:\COMPUTER_SCIENCE\IDE\VISUALSTUDIO2019\IDE\VC\TOOLS\MSVC\14.29.30133\INCLUDE\XLOCBUF
C:\COMPUTER_SCIENCE\IDE\VISUALSTUDIO2019\IDE\VC\TOOLS\MSVC\14.29.30133\INCLUDE\XLOCMES
C:\COMPUTER_SCIENCE\IDE\VISUALSTUDIO2019\IDE\VC\TOOLS\MSVC\14.29.30133\INCLUDE\STRING_VIEW
C:\COMPUTER_SCIENCE\IDE\VISUALSTUDIO2019\IDE\VC\TOOLS\MSVC\14.29.30133\INCLUDE\XFILESYSTEM_ABI.H
C:\COMPUTER_SCIENCE\IDE\VISUALSTUDIO2019\IDE\VC\TOOLS\MSVC\14.29.30133\INCLUDE\FSTREAM
C:\PROGRAM FILES (X86)\WINDOWS KITS\10\INCLUDE\10.0.19041.0\UCRT\FCNTL.H
C:\PROGRAM FILES (X86)\WINDOWS KITS\10\INCLUDE\10.0.19041.0\UCRT\IO.H
C:\PROGRAM FILES (X86)\WINDOWS KITS\10\INCLUDE\10.0.19041.0\UCRT\CORECRT_IO.H
