^C:\USERS\SICSO\DESKTOP\UNIVERSITY\ONEDRIVE - UNIVERSITY OF LEEDS\UNIVERSITYOFLEEDS\FINAL YEAR PROJECT\PREPROCESSING\UNZIPCOMBINE\UNZIPCOMBINE'\BIN\INTERMEDIATES\$PLATFORM\RELEASE\UNZIPCOMBINE.OBJ|C:\USERS\SICSO\DESKTOP\UNIVERSITY\ONEDRIVE - UNIVERSITY OF LEEDS\UNIVERSITYOFLEEDS\FINAL YEAR PROJECT\PREPROCESSING\UNZIPCOMBINE\UNZIPCOMBINE'\BIN\INTERMEDIATES\$PLATFORM\RELEASE\ZLIBSTUFF.OBJ
C:\USERS\SICSO\DESKTOP\UNIVERSITY\ONEDRIVE - UNIVERSITY OF LEEDS\UNIVERSITYOFLEEDS\FINAL YEAR PROJECT\PREPROCESSING\UNZIPCOMBINE\UNZIPCOMBINE'\BIN\$PLATFORM\RELEASE\UNZIPCOMBINE.EXE
C:\USERS\SICSO\DESKTOP\UNIVERSITY\ONEDRIVE - UNIVERSITY OF LEEDS\UNIVERSITYOFLEEDS\FINAL YEAR PROJECT\PREPROCESSING\UNZIPCOMBINE\UNZIPCOMBINE'\BIN\INTERMEDIATES\$PLATFORM\RELEASE\UNZIPCOMBINE.IPDB
C:\USERS\SICSO\DESKTOP\UNIVERSITY\ONEDRIVE - UNIVERSITY OF LEEDS\UNIVERSITYOFLEEDS\FINAL YEAR PROJECT\PREPROCESSING\UNZIPCOMBINE\UNZIPCOMBINE'\BIN\INTERMEDIATES\$PLATFORM\RELEASE\UNZIPCOMBINE.IOBJ
C:\USERS\SICSO\DESKTOP\UNIVERSITY\ONEDRIVE - UNIVERSITY OF LEEDS\UNIVERSITYOFLEEDS\FINAL YEAR PROJECT\PREPROCESSING\UNZIPCOMBINE\UNZIPCOMBINE'\BIN\$PLATFORM\RELEASE\UNZIPCOMBINE.PDB
